[
  {
    "name" : "Шаг 1",
    "elems" : [
      {
        "type" : "Button",
        "text" : "F1",
        "onClicked" : "f1(path)"
      },
      {
        "type" : "Text",
        "text" : "A"
      },
      {
        "type" : "CheckBox",
        "text" : "A"
      },
      {
        "type" : "CheckBox",
        "text" : "Bsdfadfxcv"
      },
      {
        "type" : "TextInput",
        "name" : "B"
      },
      {
        "type" : "Text",
        "text" : "C"
      },
      {
        "type" : "TextInput",
        "name" : "C"
      }
    ]
  },
  {
    "name" : "Шаг 2",
    "elems" : [
      {
        "type" : "Text",
        "text" : "Фамилия"
      },
      {
        "type" : "TextInput",
        "name" : "lastname"
      }
    ]
  },
  {
    "name" : "Шаг 3",
    "elems" : [
      {
        "type" : "Text",
        "text" : "Имя"
      },
      {
        "type" : "TextInput",
        "name" : "name"
      },
      {
        "type" : "Text",
        "text" : "Должность"
      },
      {
        "type" : "TextInput",
        "name" : "Position"
      }
    ]
  },
  {
    "name" : "Шаг 4",
    "elems" : [
      {
        "type" : "Image",
        "src" : "/Users/vladislav/Desktop/image.png"
      }
    ]
  },
  {
    "name": "Шаг 5",
    "elems": [
      {
        "type": "Button",
        "text": "Button1"
      }
    ]
  }
]